{
    "_links": {
        "self": {
            "href": "http:\/\/default\/media\/1\/edit?_format=hal_json"
        },
        "type": {
            "href": "http:\/\/drupal.org\/rest\/type\/media\/vector_image"
        },
        "http:\/\/drupal.org\/rest\/relation\/media\/vector_image\/uid": [
            {
                "href": "http:\/\/default\/user\/2?_format=hal_json",
                "lang": "en"
            }
        ],
        "http:\/\/drupal.org\/rest\/relation\/media\/vector_image\/thumbnail": [
            {
                "href": "http:\/\/default\/sites\/default\/files\/upload\/media\/2019-11\/add.svg",
                "lang": "en"
            }
        ],
        "http:\/\/drupal.org\/rest\/relation\/media\/vector_image\/field_media_image_1": [
            {
                "href": "http:\/\/default\/sites\/default\/files\/upload\/media\/2019-11\/add.svg",
                "lang": "en"
            }
        ]
    },
    "mid": [
        {
            "value": 1
        }
    ],
    "uuid": [
        {
            "value": "43036972-2aa9-4180-a607-8697881b309a"
        }
    ],
    "vid": [
        {
            "value": 1
        }
    ],
    "langcode": [
        {
            "value": "en",
            "lang": "en"
        }
    ],
    "bundle": [
        {
            "target_id": "vector_image"
        }
    ],
    "revision_created": [
        {
            "value": "2019-11-26T15:51:54+00:00",
            "format": "Y-m-d\\TH:i:sP"
        }
    ],
    "status": [
        {
            "value": true,
            "lang": "en"
        }
    ],
    "_embedded": {
        "http:\/\/drupal.org\/rest\/relation\/media\/vector_image\/uid": [
            {
                "_links": {
                    "self": {
                        "href": "http:\/\/default\/user\/2?_format=hal_json"
                    },
                    "type": {
                        "href": "http:\/\/drupal.org\/rest\/type\/user\/user"
                    }
                },
                "uuid": [
                    {
                        "value": "e8898bb4-35a9-4066-99dc-aff7d45ea02c"
                    }
                ],
                "lang": "en"
            }
        ],
        "http:\/\/drupal.org\/rest\/relation\/media\/vector_image\/thumbnail": [
            {
                "_links": {
                    "self": {
                        "href": "http:\/\/default\/sites\/default\/files\/upload\/media\/2019-11\/add.svg"
                    },
                    "type": {
                        "href": "http:\/\/drupal.org\/rest\/type\/file\/file"
                    }
                },
                "uuid": [
                    {
                        "value": "847bd6da-2c20-4766-a77f-928f2427fddc"
                    }
                ],
                "lang": "en"
            }
        ],
        "http:\/\/drupal.org\/rest\/relation\/media\/vector_image\/field_media_image_1": [
            {
                "_links": {
                    "self": {
                        "href": "http:\/\/default\/sites\/default\/files\/upload\/media\/2019-11\/add.svg"
                    },
                    "type": {
                        "href": "http:\/\/drupal.org\/rest\/type\/file\/file"
                    }
                },
                "uuid": [
                    {
                        "value": "847bd6da-2c20-4766-a77f-928f2427fddc"
                    }
                ],
                "lang": "en"
            }
        ]
    },
    "name": [
        {
            "value": "Add icon",
            "lang": "en"
        }
    ],
    "created": [
        {
            "value": "2019-11-26T15:50:06+00:00",
            "lang": "en",
            "format": "Y-m-d\\TH:i:sP"
        }
    ],
    "changed": [
        {
            "value": "2019-11-26T15:51:54+00:00",
            "lang": "en",
            "format": "Y-m-d\\TH:i:sP"
        }
    ],
    "default_langcode": [
        {
            "value": true,
            "lang": "en"
        }
    ],
    "revision_translation_affected": [
        {
            "value": true,
            "lang": "en"
        }
    ],
    "metatag": [
        {
            "value": {
                "title": "| prova-progetto",
                "canonical_url": "http:\/\/default\/user\/login"
            }
        }
    ],
    "path": [
        {
            "alias": null,
            "pid": null,
            "langcode": "en",
            "lang": "en"
        }
    ],
    "field_media_in_library": [
        {
            "value": true,
            "lang": "en"
        }
    ]
}
