{
    "_links": {
        "self": {
            "href": "http:\/\/default\/user\/2?_format=hal_json"
        },
        "type": {
            "href": "http:\/\/drupal.org\/rest\/type\/user\/user"
        }
    },
    "uid": [
        {
            "value": 2
        }
    ],
    "uuid": [
        {
            "value": "a5fde11e-131f-4a1d-8b98-809364fa6b46"
        }
    ],
    "langcode": [
        {
            "value": "en",
            "lang": "en"
        }
    ],
    "preferred_langcode": [
        {
            "value": "en"
        }
    ],
    "preferred_admin_langcode": [
        {
            "value": "en"
        }
    ],
    "name": [
        {
            "value": "DC_author"
        }
    ],
    "timezone": [
        {
            "value": "UTC"
        }
    ],
    "status": [
        {
            "value": true
        }
    ],
    "created": [
        {
            "value": "2019-09-12T07:45:06+00:00",
            "format": "Y-m-d\\TH:i:sP"
        }
    ],
    "changed": [
        {
            "value": "2019-09-12T07:45:06+00:00",
            "lang": "en",
            "format": "Y-m-d\\TH:i:sP"
        }
    ],
    "access": [
        {
            "value": "1970-01-01T00:00:00+00:00",
            "format": "Y-m-d\\TH:i:sP"
        }
    ],
    "login": [
        {
            "value": "1970-01-01T00:00:00+00:00",
            "format": "Y-m-d\\TH:i:sP"
        }
    ],
    "roles": [
        {
            "target_id": "default_content_author"
        }
    ],
    "default_langcode": [
        {
            "value": true,
            "lang": "en"
        }
    ],
    "metatag": [
        {
            "value": {
                "title": "DC_author | prova-progetto",
                "canonical_url": "http:\/\/default\/user\/2",
                "description": "prova-progetto"
            }
        }
    ]
}